Generation of figures and tables for the paper
…
2021-07-02

Test instances

Instance table

Will be copied to Overleaf directly via DB:

x

Non-dominted points

Will be copied to Overleaf directly via DB:

#> # A tibble: 510 x 6
#>    class instance_name                            n    nd solved     p
#>    <chr> <chr>                                <dbl> <dbl> <chr>  <dbl>
#>  1 PPP   Forget21-PPP_10_3_1-100_1-100_1-250    30   797 solved     3
#>  2 PPP   Forget21-PPP_10_3_1-100_1-100_1-250    30    94 solved     3
#>  3 PPP   Forget21-PPP_10_3_1-100_1-100_1-250    30   150 solved     3
#>  4 PPP   Forget21-PPP_10_3_1-100_1-100_1-250    30   328 solved     3
#>  5 PPP   Forget21-PPP_10_3_1-100_1-100_1-250    30   412 solved     3
#>  6 PPP   Forget21-PPP_10_3_1-100_1-100_1-250    30   418 solved     3
#>  7 PPP   Forget21-PPP_10_3_1-100_1-100_1-250    30  1232 solved     3
#>  8 PPP   Forget21-PPP_10_3_1-100_1-100_1-250    30   176 solved     3
#>  9 PPP   Forget21-PPP_10_3_1-100_1-100_1-250    30  2136 solved     3
#> 10 PPP   Forget21-PPP_10_3_1-100_1-100_1-250    30   203 solved     3
#> #  with 500 more rows
…
